Data Cleaning Series :: Exploring Social Media Addiction Data – Ruminations of Another Analyst
…
social_media_data <- read_csv('Students_Social_Media_Addiction.csv')

Rows: 705 Columns: 13
── Column specification ────────────────────────────────────────────────────────
Delimiter: ","
chr (6): Gender, Academic_Level, Country, Most_Used_Platform, Affects_Academ...
dbl (7): Student_ID, Age, Avg_Daily_Usage_Hours, Sleep_Hours_Per_Night, Ment...

ℹ Use `spec()` to retrieve the full column specification for this data.
ℹ Specify the column types or set `show_col_types = FALSE` to quiet this message.

social_media_data

# A tibble: 705 × 13
   Student_ID   Age Gender Academic_Level Country     Avg_Daily_Usage_Hours
        <dbl> <dbl> <chr>  <chr>          <chr>                       <dbl>
 1          1    19 Female Undergraduate  Bangladesh                    5.2
 2          2    22 Male   Graduate       India                         2.1
 3          3    20 Female Undergraduate  USA                           6  
 4          4    18 Male   High School    UK                            3  
 5          5    21 Male   Graduate       Canada                        4.5
 6          6    19 Female Undergraduate  Australia                     7.2
 7          7    23 Male   Graduate       Germany                       1.5
 8          8    20 Female Undergraduate  Brazil                        5.8
 9          9    18 Male   High School    Japan                         4  
10         10    21 Female Graduate       South Korea                   3.3
# ℹ 695 more rows
# ℹ 7 more variables: Most_Used_Platform <chr>,
#   Affects_Academic_Performance <chr>, Sleep_Hours_Per_Night <dbl>,
#   Mental_Health_Score <dbl>, Relationship_Status <chr>,
#   Conflicts_Over_Social_Media <dbl>, Addicted_Score <dbl>
…
Given that we ordered the factors for Academic Level, we can see that its chronologically ordered in the output. We notice that two social media platforms stand out as popular - Instagram for High School and Undergraduate, and Facebook for Graduate.

Question 3

Show a table of countries showing the average sleep hours per night of High School students, with countries ordered from the least amount of sleep to the most.

social_media_data |> 
  filter(Academic_Level == "High School") |> 
  select(Country, Sleep_Hours_Per_Night) |> 
  summarise(Avg_Sleep_Hours = mean(Sleep_Hours_Per_Night), 
            .by = Country) |> 
  arrange(Avg_Sleep_Hours)

# A tibble: 27 × 2
   Country        Avg_Sleep_Hours
   <chr>                    <dbl>
 1 UAE                        5.1
 2 Ireland                    5.2
 3 Ecuador                    5.2
 4 Trinidad                   5.2
 5 Czech Republic             5.2
 6 Armenia                    5.2
 7 Liechtenstein              5.2
 8 Lebanon                    5.2
 9 Thailand                   5.3
10 Argentina                  5.3
# ℹ 17 more rows
…
From the list, we can see that they have been appropriately replaced.

Let’s now do our join and effectively answer the question.

social_media_data |> 
  left_join(countries_continents, join_by(Country == country_name)) |>
  select(continent, Country, Addicted_Score) |> 
  summarise(
    avg_addicted_score = round(mean(Addicted_Score), 2), 
    .by = c(continent, Country)) |> 
  arrange(desc(avg_addicted_score))

# A tibble: 110 × 3
   continent     Country              avg_addicted_score
   <chr>         <chr>                             <dbl>
 1 South America Ecuador                            9   
 2 Europe        Czech Republic                     9   
 3 Asia          Armenia                            9   
 4 Europe        Liechtenstein                      9   
 5 Asia          Lebanon                            9   
 6 North America United States                      8.6 
 7 Asia          United Arab Emirates               8.12
 8 Europe        Norway                             8   
 9 Europe        Belgium                            8   
10 Europe        Portugal                           8   
# ℹ 100 more rows
…
    # Filter the gender having the largest number of singles and complicated relationships
    # in each Country.
    total == max(total), 
    .by = Country) |> 
  left_join(
    # And let's get the continent information into the final result.
    countries_continents, 
    join_by(
      Country == country_name)) |> 
  select(
    # Select what we need to see
    continent, Country, Gender, total, perc_total) |> 
  arrange(desc(total)) # And order the results by number of individuals

# A tibble: 85 × 5
   continent     Country        Gender total perc_total
   <chr>         <chr>          <chr>  <int>      <dbl>
 1 North America Canada         Male      28       90.3
 2 Europe        Ireland        Female    23       85.2
 3 Europe        Spain          Female    22       84.6
 4 Asia          Turkey         Male      22       81.5
 5 North America Mexico         Male      22       81.5
 6 Europe        Switzerland    Female    18      100  
 7 Asia          Japan          Female    16       76.2
 8 Europe        Poland         Male      12       75  
 9 Europe        United Kingdom Male      11       73.3
10 Asia          Bangladesh     Female    10       55.6
# ℹ 75 more rows
…
    # Filter the gender having the largest number of singles and complicated relationships
    # in each Country.
    total == max(total), 
    .by = Country) |> 
  left_join(
    # SECOND TWEAK - Let's get the CAPITAL CITY information into the final result.
    countries_continents, 
    join_by(
      Country == country_name)) |> 
  select(
    # Select what we need to see
    Country, capital, Gender, total, perc_total) |> 
  arrange(desc(total)) # And order the results by number of individuals

# A tibble: 49 × 5
   Country              capital    Gender total perc_total
   <chr>                <chr>      <chr>  <int>      <dbl>
 1 India                New Delhi  Male      28       65.1
 2 United States        Washington Female    28       87.5
 3 Denmark              Copenhagen Male      22       84.6
 4 France               Paris      Female    21       87.5
 5 China                Beijing    Male      11       73.3
 6 Pakistan             Islamabad  Male      10       55.6
 7 Maldives             Male       Male      10       58.8
 8 Italy                Rome       Male      10       71.4
 9 United Arab Emirates Abu Dhabi  Female     8      100  
10 South Korea          Seoul      Female     7      100  
# ℹ 39 more rows
…
popular_social_media_results

# A tibble: 110 × 4
   continent     Country       Most_Used_Platform total
   <chr>         <chr>         <chr>              <int>
 1 Asia          India         WhatsApp              25
 2 Europe        France        Instagram             22
 3 Europe        Switzerland   Instagram             20
 4 Europe        Denmark       Facebook              19
 5 North America United States Instagram             19
 6 Asia          Pakistan      Instagram             18
 7 North America Mexico        WhatsApp              18
 8 North America Canada        Instagram             17
 9 Europe        Ireland       Instagram             16
10 Asia          China         WeChat                15
# ℹ 100 more rows
…
